Temperance and Tennessee STAR
…
1 A * indicates a potential outcome which we do not observe for that student.

Data Generating Mechanism

Fit a linear regression model in which math score (g4math) is the outcome, and the predictors are class type (kind), race, and years spent in small classes (yearssmall). Fit this model to an object named fit_cs.

After fitting the model, run fit_cs and be sure to display the confidence intervals.

# A tibble: 6 × 7
  term                 estimate std.error statistic  p.value conf.low conf.high
  <chr>                   <dbl>     <dbl>     <dbl>    <dbl>    <dbl>     <dbl>
1 (Intercept)            695.        2.60   267.    0        690.       700.   
2 kindregular with aid    -1.95      2.10    -0.929 3.53e- 1  -6.07       2.17 
3 kindsmall               -7.66      4.22    -1.82  6.94e- 2 -15.9        0.609
4 raceothers              38.7      13.1      2.96  3.09e- 3  13.1       64.3  
5 racewhite               16.3       2.47     6.59  5.36e-11  11.4       21.1  
6 yearssmall               2.18      1.06     2.05  4.03e- 2   0.0962     4.27 

Give the R code you used to fit your regression model to AI and ask it to create a LaTeX version of the regression equation that matches your model. Paste the LaTeX equation from AI below.

\[
\widehat{\text{g4math}} = 695\ -\ 1.95\,
\text{I}(\text{kind} = \text{regular with aid})\ -\ 7.66\,
\text{I}(\text{kind} = \text{small})\ +\ 38.7\,
\text{I}(\text{race} = \text{others})\ +\ 16.3\,
\text{I}(\text{race} = \text{white})\ +\ 2.18\,
\text{yearssmall}
\]

Marginal Effects

Start writing summary paragraph. (AI may be helpful for individual sentences but won’t give you a paragraph at once.)

Each row represents one student.

 Estimate Std. Error   z Pr(>|z|)   S 2.5 % 97.5 %  Df
      693       2.63 263   <0.001 Inf   688    698 Inf
      709       1.57 451   <0.001 Inf   706    712 Inf
      696       2.61 266   <0.001 Inf   691    701 Inf
      712       1.64 434   <0.001 Inf   709    715 Inf
      712       1.64 434   <0.001 Inf   709    715 Inf
--- 2385 rows omitted. See ?print.marginaleffects ---
…
